Vivado/project_2/project_2.sim/sim_1/behav/xsim/simulate.log
Time resolution is 1 ps
t=  0,a=0,b=1,w=0,x=0,y=0,z=0,sel=0000
t= 20,a=0,b=1,w=0,x=1,y=0,z=1,sel=0001
t= 40,a=0,b=1,w=0,x=1,y=0,z=0,sel=0010
t= 60,a=0,b=1,w=1,x=0,y=0,z=1,sel=0011
t= 80,a=0,b=1,w=0,x=0,y=1,z=1,sel=0100
t=100,a=0,b=1,w=1,x=0,y=0,z=0,sel=0101
t=120,a=0,b=1,w=0,x=1,y=1,z=1,sel=0110
t=140,a=0,b=1,w=1,x=1,y=0,z=0,sel=0111
t=160,a=0,b=1,w=0,x=0,y=1,z=0,sel=1000
t=180,a=0,b=1,w=0,x=1,y=1,z=1,sel=1001
t=200,a=0,b=1,w=0,x=1,y=1,z=0,sel=1010
t=220,a=0,b=1,w=1,x=0,y=1,z=1,sel=1011
t=240,a=0,b=1,w=0,x=1,y=0,z=1,sel=1100
t=260,a=0,b=1,w=1,x=0,y=1,z=0,sel=1101
t=280,a=0,b=1,w=1,x=0,y=0,z=1,sel=1110
t=300,a=0,b=1,w=1,x=1,y=1,z=0,sel=1111
